-------------------------------------------------------------------------------
Test set: com.bbva.czic.account.dao.model.oz55.TestTransaccionOz55
-------------------------------------------------------------------------------
Tests run: 1, Failures: 0, Errors: 0, Skipped: 0, Time elapsed: 35.752 sec
