-------------------------------------------------------------------------------
Test set: com.bbva.czic.account.dao.model.ozov.TestTransaccionOzov
-------------------------------------------------------------------------------
Tests run: 1, Failures: 0, Errors: 0, Skipped: 0, Time elapsed: 2.336 sec
